<?xml version="1.0" encoding="UTF-8"?>
<testng-results ignored="0" total="3" passed="3" failed="0" skipped="0">
  <reporter-output>
  </reporter-output>
  <suite started-at="2023-02-26T13:42:54 UTC" name="bosch.AppTest" finished-at="2023-02-26T13:42:54 UTC" duration-ms="66">
    <groups>
    </groups>
    <test started-at="2023-02-26T13:42:54 UTC" name="Command line test" finished-at="2023-02-26T13:42:54 UTC" duration-ms="66">
      <class name="bosch.AppTest">
        <test-method is-config="true" signature="setUp()[pri:0, instance:bosch.AppTest@46daef40]" started-at="2023-02-26T13:42:54 UTC" name="setUp" finished-at="2023-02-26T13:42:54 UTC" duration-ms="11" status="PASS">
          <reporter-output>
          </reporter-output>
        </test-method> <!-- setUp -->
        <test-method signature="testMethod1()[pri:1, instance:bosch.AppTest@46daef40]" started-at="2023-02-26T13:42:54 UTC" name="testMethod1" finished-at="2023-02-26T13:42:54 UTC" duration-ms="3" status="PASS">
          <reporter-output>
          </reporter-output>
        </test-method> <!-- testMethod1 -->
        <test-method signature="testMethod2()[pri:1, instance:bosch.AppTest@46daef40]" started-at="2023-02-26T13:42:54 UTC" name="testMethod2" finished-at="2023-02-26T13:42:54 UTC" duration-ms="3" status="PASS">
          <reporter-output>
          </reporter-output>
        </test-method> <!-- testMethod2 -->
        <test-method signature="testMethod3()[pri:1, instance:bosch.AppTest@46daef40]" started-at="2023-02-26T13:42:54 UTC" name="testMethod3" finished-at="2023-02-26T13:42:54 UTC" duration-ms="0" status="PASS">
          <reporter-output>
          </reporter-output>
        </test-method> <!-- testMethod3 -->
        <test-method is-config="true" signature="tearDown()[pri:0, instance:bosch.AppTest@46daef40]" started-at="2023-02-26T13:42:54 UTC" name="tearDown" finished-at="2023-02-26T13:42:54 UTC" duration-ms="1" status="PASS">
          <reporter-output>
          </reporter-output>
        </test-method> <!-- tearDown -->
      </class> <!-- bosch.AppTest -->
    </test> <!-- Command line test -->
  </suite> <!-- bosch.AppTest -->
</testng-results>
